Model Fitting and Interpretation
…
---

class: middle

# Models with categorical explanatory variables

---

## Categorical predictor with 2 levels

.pull-left-narrow[
.small[

```
#> # A tibble: 2,308 × 3
#>    lhairHg assets_sc[,1] native_cat
#>      <dbl>         <dbl> <chr>     
#>  1  0.676         -0.837 Non-native
#>  2  0.0908         0.197 Non-native
#>  3  1.67          -0.280 Non-native
#>  4  0.450         -0.280 Non-native
#>  5  0.704         -0.280 Non-native
#>  6 -0.512         -0.280 Non-native
#>  7 -0.125          0.826 Non-native
#>  8 -0.103          0.826 Non-native
#>  9  0.351         -1.27  Non-native
#> 10  0.0444        -1.27  Non-native
#> 11  0.662         -0.359 Non-native
#> 12  1.01           1.29  Non-native
#> 13 -0.149          1.29  Non-native
#> 14  0.881          0.517 Non-native
#> 15  1.51           0.517 Non-native
#> 16  0.328         -0.658 Non-native
#> 17  0.0553         0.533 Non-native
#> 18  0.768          1.29  Non-native
#> 19  0.431          1.30  Non-native
#> 20  1.55           1.30  Non-native
#> # … with 2,288 more rows
```
…
- **Intercept:** Individuals living in native communities (`Non-native`=0) are expected to have hair mercury exposures of 1.12 log ppm.

---

## Relationship between mercury and individual community

```r
linear_reg() %>%
  set_engine("lm") %>%
  fit(lhairHg ~ community, data = mercury) %>%
  tidy()
```

```
#> # A tibble: 23 × 5
#>    term                        estimate std.error statistic  p.value
#>    <chr>                          <dbl>     <dbl>     <dbl>    <dbl>
#>  1 (Intercept)                    0.614    0.0644      9.54 3.55e-21
#>  2 communityBoca Isiriwe          1.20     0.159       7.56 5.77e-14
#>  3 communityBoca Manu             0.833    0.129       6.43 1.56e-10
#>  4 communityCaychihue            -1.10     0.132      -8.36 1.09e-16
#>  5 communityChoque               -0.778    0.117      -6.68 3.04e-11
#>  6 communityDiamante              1.06     0.109       9.67 1.00e-21
#>  7 communityHuepetuhe            -0.694    0.0732     -9.48 5.96e-21
#>  8 communityIsla de los Valles    1.12     0.245       4.57 5.18e- 6
#>  9 communityMasenawa              1.20     0.401       3.00 2.74e- 3
#> 10 communityPalotoa Teparo        0.350    0.148       2.36 1.82e- 2
#> # … with 13 more rows
```

---

## Dummy or indicator variables

```
#> # A tibble: 23 × 5
#>    term                        estimate std.error statistic  p.value
#>    <chr>                          <dbl>     <dbl>     <dbl>    <dbl>
#>  1 (Intercept)                    0.614    0.0644      9.54 3.55e-21
#>  2 communityBoca Isiriwe          1.20     0.159       7.56 5.77e-14
#>  3 communityBoca Manu             0.833    0.129       6.43 1.56e-10
#>  4 communityCaychihue            -1.10     0.132      -8.36 1.09e-16
#>  5 communityChoque               -0.778    0.117      -6.68 3.04e-11
#>  6 communityDiamante              1.06     0.109       9.67 1.00e-21
#>  7 communityHuepetuhe            -0.694    0.0732     -9.48 5.96e-21
#>  8 communityIsla de los Valles    1.12     0.245       4.57 5.18e- 6
#>  9 communityMasenawa              1.20     0.401       3.00 2.74e- 3
#> 10 communityPalotoa Teparo        0.350    0.148       2.36 1.82e- 2
#> # … with 13 more rows
```
…
etc. for the other communities. Note Boca Colorado, the *referent community*, =0 for all vars

---

## Relationship between mercury and community

.small[

```
#> # A tibble: 23 × 5
#>    term                        estimate std.error statistic  p.value
#>    <chr>                          <dbl>     <dbl>     <dbl>    <dbl>
#>  1 (Intercept)                    0.614    0.0644      9.54 3.55e-21
#>  2 communityBoca Isiriwe          1.20     0.159       7.56 5.77e-14
#>  3 communityBoca Manu             0.833    0.129       6.43 1.56e-10
#>  4 communityCaychihue            -1.10     0.132      -8.36 1.09e-16
#>  5 communityChoque               -0.778    0.117      -6.68 3.04e-11
#>  6 communityDiamante              1.06     0.109       9.67 1.00e-21
#>  7 communityHuepetuhe            -0.694    0.0732     -9.48 5.96e-21
#>  8 communityIsla de los Valles    1.12     0.245       4.57 5.18e- 6
#>  9 communityMasenawa              1.20     0.401       3.00 2.74e- 3
#> 10 communityPalotoa Teparo        0.350    0.148       2.36 1.82e- 2
#> # … with 13 more rows
```
…
