Prediction and Overfitting
…
```r
bigmod <- logistic_reg() %>%
  set_engine("glm") %>%
  fit(TRYSTOP ~ GENDER+PROVINCE+RESIDENCE+EDUCATION+OCCUPATION+HOMESMOKERULES+SMOKESICK+SMOKECANCER, data = gats, family = "binomial") %>%
  tidy() 
```
 
---

```r
print(bigmod,n=17)
```

```
#> # A tibble: 64 × 5
#>    term                 estimate std.error statistic p.value
#>    <chr>                   <dbl>     <dbl>     <dbl>   <dbl>
#>  1 (Intercept)           -0.805      0.406    -1.98   0.0474
#>  2 GENDERFemale           0.249      0.158     1.57   0.115 
#>  3 PROVINCETianjin       -0.847      0.636    -1.33   0.183 
#>  4 PROVINCEHebei          0.387      0.398     0.972  0.331 
#>  5 PROVINCEShanxi         0.335      0.398     0.841  0.400 
#>  6 PROVINCENeimenggu      0.369      0.424     0.869  0.385 
#>  7 PROVINCELiaoning       0.474      0.424     1.12   0.264 
#>  8 PROVINCEJilin          0.494      0.408     1.21   0.226 
#>  9 PROVINCEHeilongjiang  -0.115      0.415    -0.277  0.782 
#> 10 PROVINCEShanghai      -0.248      0.423    -0.587  0.557 
#> 11 PROVINCEJiangsu        0.334      0.392     0.852  0.394 
#> 12 PROVINCEZhejiang       0.234      0.416     0.563  0.574 
#> 13 PROVINCEAnhui          1.03       0.402     2.57   0.0103
#> 14 PROVINCEFujian         0.725      0.404     1.79   0.0729
#> 15 PROVINCEJiangxi       -0.0774     0.445    -0.174  0.862 
#> 16 PROVINCEShangdong      0.399      0.397     1.01   0.314 
#> 17 PROVINCEHenan          0.810      0.398     2.04   0.0417
#> # … with 47 more rows
```
…
---

## Predict outcome on the testing dataset

```r
predict(trystop_m1, test_data)
```

```
#> # A tibble: 938 × 1
#>   .pred_class
#>   <fct>      
#> 1 No         
#> 2 Yes        
#> 3 No         
#> 4 Yes        
#> 5 No         
#> 6 No         
#> # … with 932 more rows
```

---

## Predict probabilities on the testing dataset

```r
trystop_pred1 <- predict(trystop_m1, test_data, type = "prob") %>%
  bind_cols(test_data %>% select(TRYSTOP))

trystop_pred1
```

```
#> # A tibble: 938 × 3
#>   .pred_No .pred_Yes TRYSTOP
#>      <dbl>     <dbl> <fct>  
#> 1    0.509     0.491 Yes    
#> 2    0.496     0.504 No     
#> 3    0.557     0.443 No     
#> 4    0.496     0.504 No     
#> 5    0.596     0.404 Yes    
#> 6    0.680     0.320 No     
#> # … with 932 more rows
```

---

## A closer look at predictions

.pull-left-wide[

```r
trystop_pred1 %>%
  arrange(desc(.pred_Yes)) %>%
  print(n = 15)
```

```
#> # A tibble: 938 × 3
#>    .pred_No .pred_Yes TRYSTOP
#>       <dbl>     <dbl> <fct>  
#>  1    0.158     0.842 No     
#>  2    0.180     0.820 Yes    
*#>  3    0.193     0.807 No     
#>  4    0.196     0.804 No     
*#>  5    0.197     0.803 Yes    
#>  6    0.205     0.795 Yes    
#>  7    0.220     0.780 No     
#>  8    0.222     0.778 No     
#>  9    0.223     0.777 Yes    
#> 10    0.227     0.773 No     
#> 11    0.227     0.773 Yes    
#> 12    0.228     0.772 No     
#> 13    0.241     0.759 No     
#> 14    0.243     0.757 Yes    
#> 15    0.247     0.753 No     
#> # … with 923 more rows
```
…
