Data Wrangling I
…
---

### `select()`

The `select()` function picks off one or more columns by name.

Let's say we want a dataset that only contains the variable BMI.

```r
select(BMI_long, BMI)
```

```
## # A tibble: 2,400 × 1
##     BMI
##   <dbl>
## 1  20.2
## 2  19.7
## 3  22.4
## 4  22.8
## 5  22.5
## 6  23.6
## # … with 2,394 more rows
```

---

We can also use `select()` to exclude variables. Let's exclude `BMI` but
keep all other variables.

```r
select(BMI_long, -BMI)
```

```
## # A tibble: 2,400 × 4
##   Country     Sex   Region   Year 
##   <chr>       <chr> <chr>    <chr>
## 1 Afghanistan Men   National 1985 
## 2 Afghanistan Men   Rural    1985 
## 3 Afghanistan Men   Urban    1985 
## 4 Afghanistan Men   National 2017 
## 5 Afghanistan Men   Rural    2017 
## 6 Afghanistan Men   Urban    2017 
## # … with 2,394 more rows
```

---

We can also use `select()` to select a range of variables. Here, we select the 
first three variables.

```r
select(BMI_long, Country:Region)
```

```
## # A tibble: 2,400 × 3
##   Country     Sex   Region  
##   <chr>       <chr> <chr>   
## 1 Afghanistan Men   National
## 2 Afghanistan Men   Rural   
## 3 Afghanistan Men   Urban   
## 4 Afghanistan Men   National
## 5 Afghanistan Men   Rural   
## 6 Afghanistan Men   Urban   
## # … with 2,394 more rows
```

---

### `arrange()`

The `arrange()` function orders rows (observations) in specific ways. 

Let's arrange the data by descending BMI, with large BMI values on top.

```r
arrange(BMI_long, desc(BMI))
```

```
## # A tibble: 2,400 × 5
##   Country        Sex   Region   Year    BMI
##   <chr>          <chr> <chr>    <chr> <dbl>
## 1 American Samoa Women Urban    2017   35.4
## 2 American Samoa Women National 2017   35.3
## 3 American Samoa Women Rural    2017   35  
## 4 Samoa          Women Urban    2017   34.7
## 5 American Samoa Men   Rural    2017   34.6
## 6 American Samoa Women Urban    1985   34.4
## # … with 2,394 more rows
```

---

Or with low BMI values on top.

```r
arrange(BMI_long, BMI)
```

```
## # A tibble: 2,400 × 5
##   Country     Sex   Region   Year    BMI
##   <chr>       <chr> <chr>    <chr> <dbl>
## 1 Bangladesh  Women Rural    1985   17.7
## 2 Bangladesh  Women National 1985   18.2
## 3 Timor-Leste Women Rural    1985   18.2
## 4 Viet Nam    Women Rural    1985   18.2
## 5 Nepal       Women Rural    1985   18.3
## 6 Ethiopia    Men   Rural    1985   18.4
## # … with 2,394 more rows
```

---

Or by two factors...

```r
arrange(BMI_long, desc(Country), BMI)
```

```
## # A tibble: 2,400 × 5
##   Country  Sex   Region   Year    BMI
##   <chr>    <chr> <chr>    <chr> <dbl>
## 1 Zimbabwe Men   Rural    1985   20.9
## 2 Zimbabwe Men   National 1985   21.2
## 3 Zimbabwe Men   Rural    2017   21.9
## 4 Zimbabwe Men   Urban    1985   22.1
## 5 Zimbabwe Men   National 2017   22.3
## 6 Zimbabwe Men   Urban    2017   23.3
## # … with 2,394 more rows
```

---

### The Pipe

The pipe is a technique for passing information from one process to another. 

```r
BMI_long %>%
  arrange(desc(BMI)) %>%
  select(Country, BMI)
```

```
## # A tibble: 2,400 × 2
##   Country          BMI
##   <chr>          <dbl>
## 1 American Samoa  35.4
## 2 American Samoa  35.3
## 3 American Samoa  35  
## 4 Samoa           34.7
## 5 American Samoa  34.6
## 6 American Samoa  34.4
## # … with 2,394 more rows
```
…
---

### `filter()`

`filter()` selects rows satisfying certain conditions.

We can use a single condition. Here we select all rows where the country is Iceland.

```r
BMI_long %>%
  filter(Country == "Iceland")
```

```
## # A tibble: 12 × 5
##   Country Sex   Region   Year    BMI
##   <chr>   <chr> <chr>    <chr> <dbl>
## 1 Iceland Men   National 1985   24.8
## 2 Iceland Men   Rural    1985   25.2
## 3 Iceland Men   Urban    1985   24.8
## 4 Iceland Men   National 2017   27.1
## 5 Iceland Men   Rural    2017   27.3
## 6 Iceland Men   Urban    2017   27.1
## # … with 6 more rows
```
…
---

More complex conditions are possible!

**Question:** In plain English, what is the code below accomplishing?

```r
BMI_long %>%
  filter(Country %in% c("Iceland", "Ireland"),
         Year == 2017 | Region == "National")
```

```
## # A tibble: 16 × 5
##   Country Sex   Region   Year    BMI
##   <chr>   <chr> <chr>    <chr> <dbl>
## 1 Iceland Men   National 1985   24.8
## 2 Iceland Men   National 2017   27.1
## 3 Iceland Men   Rural    2017   27.3
## 4 Iceland Men   Urban    2017   27.1
## 5 Iceland Women National 1985   24.3
## 6 Iceland Women National 2017   25.5
## # … with 10 more rows
```
…
Here's the output!

```
## # A tibble: 2,400 × 2
##     BMI bmiclass    
##   <dbl> <fct>       
## 1  20.2 Normal Range
## 2  19.7 Normal Range
## 3  22.4 Normal Range
## 4  22.8 Normal Range
## 5  22.5 Normal Range
## 6  23.6 Normal Range
## # … with 2,394 more rows
```
…
```
## # A tibble: 2,400 × 7
##   Country     Sex   Region   Year    BMI bmiclass     normal_range
##   <chr>       <chr> <chr>    <chr> <dbl> <fct>        <lgl>       
## 1 Afghanistan Men   National 1985   20.2 Normal Range TRUE        
## 2 Afghanistan Men   Rural    1985   19.7 Normal Range TRUE        
## 3 Afghanistan Men   Urban    1985   22.4 Normal Range TRUE        
## 4 Afghanistan Men   National 2017   22.8 Normal Range TRUE        
## 5 Afghanistan Men   Rural    2017   22.5 Normal Range TRUE        
## 6 Afghanistan Men   Urban    2017   23.6 Normal Range TRUE        
## # … with 2,394 more rows
```
…
