Prediction and Overfitting
…
---
## Specify model

```r
mercury_fit <- linear_reg() %>%
  set_engine("lm") %>%
    fit(lhairHg ~ assets_sc * native_cat + form_min_sc + sex_cat + age + urban, data = mercury1)
  
tidy(mercury_fit)
```

```
#> # A tibble: 8 × 5
#>   term                 estimate std.error statistic    p.value
#>   <chr>                   <dbl>     <dbl>     <dbl>      <dbl>
#> 1 (Intercept)           0.544     0.151      3.59   0.000352  
#> 2 assets_sc            -0.314     0.0946    -3.32   0.000953  
#> 3 native_catNon-native -0.760     0.170     -4.48   0.00000893
#> 4 form_min_sc          -0.00341   0.0443    -0.0770 0.939     
#> 5 sex_catMale          -0.0330    0.0815    -0.405  0.686     
#> 6 age                   0.00919   0.00243    3.78   0.000171  
#> # … with 2 more rows
```
…
# Evaluate model

---

## Make predictions for training data

```r
mercury_train_pred <- predict(mercury_fit, mercury_train) %>%
  bind_cols(mercury_train %>% select(lhairHg))

mercury_train_pred
```

```
#> # A tibble: 844 × 2
#>     .pred lhairHg
#>     <dbl>   <dbl>
#> 1 -0.196   NA    
#> 2  0.203    0.911
#> 3  0.0907  -1.23 
#> 4  0.0564   0.807
#> 5  0.0926   2.13 
#> 6  0.738    0.941
#> # … with 838 more rows
```
…
