Cross-Validation
…
# Evaluate model

---

## Make predictions for training data

```r
mercury_train_pred <- predict(mercury_fit, mercury_train) %>%
  bind_cols(mercury_train %>% select(lhairHg))

mercury_train_pred
```

```
#> # A tibble: 844 × 2
#>     .pred lhairHg
#>     <dbl>   <dbl>
#> 1  0.331   -0.897
#> 2  0.183   -0.268
#> 3 -0.158   NA    
#> 4  0.0895  NA    
#> 5 -0.0276   0.510
#> 6 -0.0288  NA    
#> # … with 838 more rows
```
…
---

## Make predictions for testing data

```r
mercury_test_pred <- predict(mercury_fit, mercury_test) %>%
  bind_cols(mercury_test %>% select(lhairHg))

mercury_test_pred
```

```
#> # A tibble: 282 × 2
#>     .pred lhairHg
#>     <dbl>   <dbl>
#> 1  0.140   NA    
#> 2 -0.111   NA    
#> 3  0.201    1.51 
#> 4 -0.0172   0.768
#> 5 NA       NA    
#> 6 NA       NA    
#> # … with 276 more rows
```
…
