ANOVA: Analysis of Variance
…
```
#> [1] 138
```

OK, that's a lot of differences!  More community pairs are different than not.

---

```r
print(sigpairs,n=10)
```

```
#> # A tibble: 138 × 3
#>    group1       group2         p.value
#>    <chr>        <chr>            <dbl>
#>  1 Boca Isiriwe Boca Colorado 1.13e-11
#>  2 Boca Manu    Boca Colorado 2.82e- 8
#>  3 Caychihue    Boca Colorado 2.31e-14
#>  4 Caychihue    Boca Isiriwe  5.64e-32
#>  5 Caychihue    Boca Manu     5.52e-30
#>  6 Choque       Boca Colorado 5.56e- 9
#>  7 Choque       Boca Isiriwe  1.35e-26
#>  8 Choque       Boca Manu     2.18e-24
#>  9 Diamante     Boca Colorado 2.30e-19
#> 10 Diamante     Caychihue     1.68e-45
#> # … with 128 more rows
```
…
## Bonferroni Correction

As we showed earlier, conducting multiple tests on a data set increases the *family-wise error rate*.  One very conservative way to ensure this is not the case is to divide `\(\alpha\)` by the number of tests to be done and to use that as the significance level.  This procedure is called the Bonferroni correction. For example for two tests, to preserve an overall 0.05 type I error rate, the Bonferroni correction would use `\(\frac{\alpha}{2}=0.025\)` as the significance level for each individual test instead of `\(0.05\)`.  Bonferroni is a conservative multiple comparisons correction (like saving your money in your mattress!), making it harder to reject the null hypothesis, but it is a safe bet in controlling the type I error rate. A less conservative method that also offers strong control of the error rate is Holm's method, which we used in our code.

---

## Violation of independence

The violation of the independence assumption due to the inclusion of multiple household members is indeed a concern.  To explore this, let's calculate the fraction of households (coded using `hid`) that provided hair measures from more than one household member.

.panelset[
.panel[.panel-name[Output]

```
#> # A tibble: 23 × 2
#>    community          avgct
#>    <chr>              <dbl>
#>  1 Boca Colorado      0.794
#>  2 Boca Isiriwe       0.973
#>  3 Boca Manu          0.903
#>  4 Caychihue          0.831
#>  5 Choque             0.807
#>  6 Diamante           0.842
#>  7 Huepetuhe          0.842
#>  8 Isla de los Valles 0.929
#>  9 Masenawa           0.6  
#> 10 Palotoa Teparo     0.977
#> # … with 13 more rows
```
]
.panel[.panel-name[Code]

```r
mercury %>%
  filter(is.na(lhairHg)==FALSE) %>%
  group_by(hid) %>%
  mutate(hhobs=n(),
         multmeas=(hhobs>1)) %>%
  group_by(community) %>%
  summarize(avgct=mean(multmeas))
```

```
#> # A tibble: 23 × 2
#>    community          avgct
#>    <chr>              <dbl>
#>  1 Boca Colorado      0.794
#>  2 Boca Isiriwe       0.973
#>  3 Boca Manu          0.903
#>  4 Caychihue          0.831
#>  5 Choque             0.807
#>  6 Diamante           0.842
#>  7 Huepetuhe          0.842
#>  8 Isla de los Valles 0.929
#>  9 Masenawa           0.6  
#> 10 Palotoa Teparo     0.977
#> # … with 13 more rows
```
…
```
#> [1] 55
```

---

```r
print(sigpairs,n=10)
```

```
#> # A tibble: 55 × 3
#>    group1    group2             p.value
#>    <chr>     <chr>                <dbl>
#>  1 Caychihue Boca Colorado 0.0210      
#>  2 Caychihue Boca Isiriwe  0.0000188   
#>  3 Caychihue Boca Manu     0.00279     
#>  4 Choque    Boca Isiriwe  0.000240    
#>  5 Choque    Boca Manu     0.0344      
#>  6 Diamante  Boca Colorado 0.00478     
#>  7 Diamante  Caychihue     0.0000000397
#>  8 Diamante  Choque        0.000000507 
#>  9 Huepetuhe Boca Colorado 0.000282    
#> 10 Huepetuhe Boca Isiriwe  0.0000169   
#> # … with 45 more rows
```
…
