Residual Analysis and Transformations
…
ggplot(hg_asset_fit_aug, mapping = aes(x = .fitted, y = .resid)) +
  geom_point(alpha = 0.5) +
  geom_hline(yintercept = 0, color = "gray", lty = "dashed") +
  labs(x = "Predicted mercury (ppm)", y = "Residuals")
```
]

.panel[.panel-name[Augment]

```r
hg_asset_fit_aug
```

```
#> # A tibble: 2,300 × 9
#>   .rownames hairHg assets_sc[,1] .fitted .resid     .hat .sigma
#>   <chr>      <dbl>         <dbl>   <dbl>  <dbl>    <dbl>  <dbl>
#> 1 1          1.97         -0.837    3.05 -1.08  0.000750   2.77
#> 2 3          1.10          0.197    2.12 -1.03  0.000452   2.77
#> 3 11         5.34         -0.280    2.55  2.79  0.000471   2.77
#> 4 13         1.57         -0.280    2.55 -0.981 0.000471   2.77
#> 5 14         2.02         -0.280    2.55 -0.528 0.000471   2.77
#> 6 15         0.599        -0.280    2.55 -1.95  0.000471   2.77
#> # … with 2,294 more rows, and 2 more variables: .cooksd <dbl>,
#> #   .std.resid <dbl>
```
…
